<svg width="88" height="88" viewBox="0 0 88 88" fill="none" xmlns="http://www.w3.org/2000/svg">
<path fill-rule="evenodd" clip-rule="evenodd" d="M44 88C68.3005 88 88 68.3005 88 44C88 19.6995 68.3005 0 44 0C19.6995 0 0 19.6995 0 44C0 68.3005 19.6995 88 44 88Z" fill="#F04037" fill-opacity="0.1"/>
<path fill-rule="evenodd" clip-rule="evenodd" d="M52.5172 28.339H52.4245C51.0322 28.3378 49.6553 28.6323 48.3844 29.2032L43.9334 38.1405L50.4419 43.858L43.1198 54.4763L46.3741 44.6748L39.052 38.9573L43.0198 30.3254C41.3051 29.0338 39.2187 28.3366 37.0751 28.339H36.9799C31.4016 28.3626 26.8825 32.8913 26.8486 38.4917C26.8486 48.1053 43.5266 61.878 44.232 62.4596C44.5316 62.7056 44.9623 62.7056 45.2619 62.4596C45.9713 61.878 62.6452 48.1053 62.6452 38.4884C62.6123 32.8895 58.0941 28.3617 52.5172 28.339Z" fill="#F04037"/>
</svg>
