<svg width="24" height="24" viewBox="0 0 24 24" fill="none" xmlns="http://www.w3.org/2000/svg">
<path d="M24 12C24 5.373 18.627 0 12 0C5.373 0 0 5.373 0 12C0 17.99 4.388 22.954 10.125 23.855V15.469H7.079V12H10.125V9.357C10.125 6.35 11.916 4.687 14.658 4.687C15.971 4.687 17.345 4.921 17.345 4.921V7.875H15.83C14.339 7.875 13.874 8.8 13.874 9.748V12H17.202L16.67 15.47H13.874V23.855C19.613 22.955 24 17.989 24 12Z" fill="url(#paint0_linear)"/>
<path d="M17.2031 12H13.8751V9.74801C13.8751 8.79901 14.3401 7.87501 15.8311 7.87501H17.3451V4.92101C17.3451 4.92101 15.9711 4.68701 14.6581 4.68701C11.9161 4.68701 10.1251 6.34901 10.1251 9.35701V12H7.0791V15.47H10.1251V23.855C10.7351 23.951 11.3631 24 12.0001 24C12.6371 24 13.2641 23.95 13.8751 23.855V15.469H16.6711L17.2031 12Z" fill="white"/>
<defs>
<linearGradient id="paint0_linear" x1="11.1429" y1="28.5408" x2="16.6483" y2="-26.1096" gradientUnits="userSpaceOnUse">
<stop stop-color="#1569CB"/>
<stop offset="1" stop-color="#29AEF3"/>
</linearGradient>
</defs>
</svg>
