<svg width="58" height="52" viewBox="0 0 58 52" fill="none" xmlns="http://www.w3.org/2000/svg">
<g clip-path="url(#clip0)">
<path d="M30.2776 45.4317C30.2776 46.1291 30.2901 46.7885 30.2776 47.4351C30.2272 49.9965 28.3648 51.9238 25.8228 51.9745C23.6458 52.0126 21.4561 52.0126 19.2791 51.9745C16.7371 51.9238 14.8117 49.9204 14.8243 47.4225C14.8369 44.8992 16.8 42.9084 19.3672 42.8831C22.5509 42.8577 25.7473 42.8958 28.9311 42.8704C38.5705 42.8197 46.4859 36.353 48.5496 26.8558C50.7644 16.5217 44.3088 5.95941 34.1157 3.29665C22.4503 0.240811 10.81 8.02622 9.1489 20.0213C8.75879 22.8616 8.96013 25.6639 9.79068 28.4154C10.2311 29.8609 9.72776 30.5329 8.21767 30.5456C6.83343 30.5456 5.44918 30.5583 4.06493 30.5456C1.66137 30.5202 0.0380242 28.9099 0.012856 26.4881C0.00027195 23.9901 0.00027195 21.5049 0.012856 19.007C0.0254401 16.5851 1.66137 14.9748 4.05234 14.9621C5.14716 14.9494 6.22939 14.9494 7.3242 14.9621C7.67656 14.9748 7.82757 14.8607 7.96599 14.531C11.0491 6.92308 16.5861 2.20618 24.5518 0.481727C35.0721 -1.80064 45.907 4.10816 49.8836 14.2267C50.0975 14.7719 50.3492 15.0001 50.9532 14.9748C52.0228 14.9241 53.0925 14.9494 54.1621 14.9748C56.2133 15.0128 57.887 16.5724 57.9374 18.6266C58.0003 21.3908 58.0003 24.1676 57.9374 26.9318C57.887 28.9479 56.2008 30.4949 54.1118 30.5456C52.9792 30.571 51.8467 30.571 50.7141 30.5456C50.324 30.5329 50.1352 30.647 49.9842 31.0274C46.6243 39.1172 40.6091 43.8087 32.0393 45.2415C31.4982 45.3303 30.9319 45.3556 30.2776 45.4317ZM7.0096 27.9082C6.25456 24.4212 6.29231 21.0104 6.99702 17.5741C5.85187 17.5741 4.80739 17.5361 3.76291 17.5868C3.07079 17.6122 2.59259 18.1194 2.58001 18.8294C2.55484 21.4542 2.55484 24.0662 2.58001 26.6909C2.58001 27.3503 3.04562 27.8702 3.64965 27.8955C4.74447 27.9336 5.83928 27.9082 7.0096 27.9082ZM50.9658 17.5741C51.7208 21.0611 51.7082 24.472 50.9784 27.9209C52.1361 27.9209 53.2057 27.9462 54.2754 27.9082C54.9298 27.8828 55.3954 27.3376 55.408 26.6149C55.4205 24.0408 55.4205 21.4668 55.408 18.8802C55.408 18.132 54.9298 17.6122 54.2125 17.5868C53.168 17.5361 52.1235 17.5741 50.9658 17.5741ZM27.6852 45.5078C24.7657 45.5078 21.9217 45.4824 19.0777 45.5205C18.0962 45.5332 17.3915 46.4334 17.4166 47.4605C17.4292 48.4622 18.1717 49.3117 19.1784 49.3371C21.4435 49.3751 23.6961 49.3625 25.9612 49.3371C26.8673 49.3244 27.5846 48.6524 27.6852 47.7141C27.7482 47.004 27.6852 46.2813 27.6852 45.5078Z" fill="#EC3137"/>
<path d="M16.6991 33.348C16.0824 32.397 15.4281 31.5348 14.9121 30.6092C9.41289 20.8077 15.5917 8.24194 26.6531 6.695C35.5626 5.45237 43.6793 11.5641 44.9503 20.478C46.2213 29.3665 39.9796 37.6338 31.0952 38.813C30.3528 38.9145 29.5977 38.9525 28.8427 38.9525C24.0356 38.9652 19.241 38.9525 14.4339 38.9652C13.9306 38.9652 13.4775 38.8764 13.1629 38.4326C12.7603 37.862 12.8232 37.228 13.3895 36.6574C14.4843 35.5543 15.6043 34.4385 16.6991 33.348ZM17.3283 36.2137C17.366 36.2644 17.4038 36.3278 17.4541 36.3785C21.3552 36.3785 25.2562 36.4292 29.1447 36.3658C36.4812 36.2517 42.1944 30.5584 42.4964 23.1661C42.8488 14.6706 35.1096 7.79814 26.8041 9.30704C21.5691 10.258 17.9197 13.3266 16.2083 18.3985C14.5094 23.4577 15.6043 28.0605 19.1655 32.0293C20.0087 32.9803 20.0213 33.6143 19.1026 34.5272C18.5238 35.1105 17.9197 35.6557 17.3283 36.2137Z" fill="#EC3137"/>
<path d="M21.28 22.7731C21.2674 22.063 21.8211 21.4797 22.5132 21.4544C23.2179 21.429 23.8345 22.0503 23.8345 22.7604C23.8345 23.4578 23.2557 24.041 22.5636 24.0537C21.8714 24.0537 21.28 23.4705 21.28 22.7731Z" fill="#EC3137"/>
<path d="M36.7081 22.7731C36.6955 23.4832 36.1041 24.0665 35.4119 24.0411C34.7072 24.0284 34.1409 23.4198 34.1535 22.7224C34.1661 22.025 34.7701 21.429 35.4623 21.4544C36.167 21.4671 36.7207 22.063 36.7081 22.7731Z" fill="#EC3137"/>
<path d="M27.7229 22.735C27.7354 22.0249 28.3143 21.4416 29.0064 21.4543C29.7111 21.467 30.2648 22.0503 30.2648 22.773C30.2523 23.4831 29.6734 24.0664 28.9813 24.0537C28.2766 24.0283 27.7103 23.445 27.7229 22.735Z" fill="#EC3137"/>
</g>
<defs>
<clipPath id="clip0">
<rect width="58" height="52" fill="white"/>
</clipPath>
</defs>
</svg>
