<svg width="20" height="20" viewBox="0 0 20 20" fill="none" xmlns="http://www.w3.org/2000/svg">
<path fill-rule="evenodd" clip-rule="evenodd" d="M19.1843 6.19313C19.1664 5.42649 19.0228 4.66798 18.7593 3.94781C18.5243 3.33162 18.1587 2.77366 17.6875 2.31233C17.2299 1.83871 16.6706 1.47535 16.052 1.24973C15.3337 0.978222 14.5744 0.831352 13.8066 0.81545C12.8272 0.76001 12.513 0.76001 9.99977 0.76001C7.48649 0.76001 7.17233 0.76001 6.19289 0.81545C5.42518 0.831352 4.66583 0.978222 3.94757 1.24973C3.33004 1.47763 2.77125 1.84068 2.31209 2.31233C1.83847 2.76987 1.4751 3.32914 1.24949 3.94781C0.977978 4.66608 0.831108 5.42543 0.815206 6.19313C0.759766 7.17257 0.759766 7.48673 0.759766 10C0.759766 12.5133 0.759766 12.8275 0.815206 13.8069C0.831108 14.5746 0.977978 15.3339 1.24949 16.0522C1.4751 16.6709 1.83847 17.2301 2.31209 17.6877C2.77125 18.1593 3.33004 18.5224 3.94757 18.7503C4.66583 19.0218 5.42518 19.1687 6.19289 19.1846C7.17233 19.24 7.48649 19.24 9.99977 19.24C12.513 19.24 12.8272 19.24 13.8066 19.1846C14.5744 19.1687 15.3337 19.0218 16.052 18.7503C16.6706 18.5247 17.2299 18.1613 17.6875 17.6877C18.1608 17.2281 18.5268 16.6696 18.7593 16.0522C19.0228 15.332 19.1664 14.5735 19.1843 13.8069C19.1843 12.8275 19.2398 12.5133 19.2398 10C19.2398 7.48673 19.2398 7.17257 19.1843 6.19313Z" fill="white"/>
<path fill-rule="evenodd" clip-rule="evenodd" d="M17.521 13.6961C17.5143 14.2827 17.4081 14.8638 17.2069 15.4148C17.0593 15.8169 16.8224 16.1802 16.5139 16.4774C16.2142 16.7828 15.8516 17.0192 15.4513 17.1704C14.9003 17.3716 14.3191 17.4778 13.7326 17.4845C12.8086 17.5307 12.4667 17.54 10.0366 17.54C7.60649 17.54 7.26461 17.54 6.34061 17.4845C5.7316 17.4959 5.12518 17.4022 4.54805 17.2073C4.16531 17.0485 3.81934 16.8126 3.53165 16.5143C3.22497 16.2175 2.99097 15.8539 2.84789 15.4517C2.6223 14.8929 2.49718 14.2985 2.47829 13.6961C2.47829 12.7721 2.42285 12.4303 2.42285 10.0001C2.42285 7.57002 2.42285 7.22814 2.47829 6.30414C2.48243 5.70452 2.5919 5.11028 2.80169 4.54854C2.96436 4.15853 3.21404 3.81087 3.53165 3.53214C3.81238 3.21444 4.15931 2.96212 4.54805 2.79294C5.11128 2.5897 5.7049 2.48347 6.30365 2.47878C7.22765 2.47878 7.56953 2.42334 9.99965 2.42334C12.4298 2.42334 12.7717 2.42334 13.6957 2.47878C14.2822 2.48551 14.8633 2.59174 15.4143 2.79294C15.8342 2.94877 16.2111 3.20213 16.5139 3.53214C16.8167 3.81597 17.0532 4.16299 17.2069 4.54854C17.4122 5.11119 17.5185 5.70518 17.521 6.30414C17.5672 7.22814 17.5765 7.57002 17.5765 10.0001C17.5765 12.4303 17.5672 12.7721 17.521 13.6961Z" fill="white"/>
<path fill-rule="evenodd" clip-rule="evenodd" d="M9.99992 5.2598C7.38324 5.2649 5.26565 7.38938 5.26905 10.0061C5.27245 12.6228 7.39555 14.7417 10.0122 14.74C12.6289 14.7383 14.7493 12.6166 14.7493 9.99992C14.7518 8.74041 14.2519 7.5319 13.3604 6.64215C12.4689 5.75241 11.2594 5.25488 9.99992 5.2598Z" fill="#272626"/>
<path fill-rule="evenodd" clip-rule="evenodd" d="M9.99977 13.0769C8.30044 13.0769 6.92285 11.6994 6.92285 10C6.92285 8.30068 8.30044 6.9231 9.99977 6.9231C11.6991 6.9231 13.0767 8.30068 13.0767 10C13.0767 10.8161 12.7525 11.5987 12.1755 12.1757C11.5984 12.7528 10.8158 13.0769 9.99977 13.0769Z" fill="white"/>
<path fill-rule="evenodd" clip-rule="evenodd" d="M14.934 3.95703C14.4856 3.95703 14.0813 4.22718 13.9096 4.64151C13.738 5.05584 13.8329 5.53276 14.15 5.84987C14.4671 6.16699 14.944 6.26185 15.3583 6.09023C15.7727 5.91861 16.0428 5.5143 16.0428 5.06583C16.0428 4.45346 15.5464 3.95703 14.934 3.95703V3.95703Z" fill="#272626"/>
</svg>
