<svg width="20" height="20" viewBox="0 0 20 20" fill="none" xmlns="http://www.w3.org/2000/svg">
<path d="M17.5 13.3333C17.5 13.7754 17.3244 14.1993 17.0118 14.5119C16.6993 14.8244 16.2754 15 15.8333 15H5.83333L2.5 18.3333V5.00001C2.5 4.55798 2.67559 4.13406 2.98816 3.8215C3.30072 3.50894 3.72464 3.33334 4.16667 3.33334H15.8333C16.2754 3.33334 16.6993 3.50894 17.0118 3.8215C17.3244 4.13406 17.5 4.55798 17.5 5.00001V13.3333Z" stroke="#484848" stroke-width="2" stroke-linecap="round" stroke-linejoin="round"/>
</svg>
