<svg width="20" height="20" viewBox="0 0 20 20" fill="none" xmlns="http://www.w3.org/2000/svg">
<path d="M14.7611 15.3119H6.8885C6.30725 15.3119 5.81185 14.8872 5.71437 14.3068L3.62145 1.837C3.5741 1.55639 3.43045 1.30177 3.21587 1.11811C3.0013 0.934458 2.7296 0.833585 2.44877 0.833313H1.66675" stroke="#484848" stroke-width="1.6" stroke-linecap="round" stroke-linejoin="round"/>
<path d="M5.27566 11.6917H14.8549C15.3859 11.6917 15.9016 11.5118 16.3201 11.1805C16.7386 10.8493 17.0358 10.3857 17.1646 9.86357L18.3155 5.19763C18.3375 5.10858 18.3392 5.01561 18.3204 4.92579C18.3016 4.83597 18.2629 4.75169 18.2071 4.67936C18.1513 4.60702 18.08 4.54855 17.9986 4.50839C17.9171 4.46824 17.8277 4.44746 17.7371 4.44763H4.06079" stroke="#484848" stroke-width="1.6" stroke-linecap="round" stroke-linejoin="round"/>
<ellipse cx="13.2733" cy="18.0605" rx="1.0912" ry="1.1062" fill="#484848"/>
<ellipse cx="7.45375" cy="18.0605" rx="1.0912" ry="1.1062" fill="#484848"/>
</svg>
