<svg width="24" height="24" viewBox="0 0 24 24" fill="none" xmlns="http://www.w3.org/2000/svg">
<circle cx="12" cy="12" r="12" fill="#A3A3A3"/>
<path d="M17.25 13V15.3333C17.25 15.6428 17.1271 15.9395 16.9083 16.1583C16.6895 16.3771 16.3928 16.5 16.0833 16.5H7.91667C7.60725 16.5 7.3105 16.3771 7.09171 16.1583C6.87292 15.9395 6.75 15.6428 6.75 15.3333V13" stroke="white" stroke-width="1.6" stroke-linecap="round" stroke-linejoin="round"/>
<path d="M9.08301 10.0833L11.9997 13L14.9163 10.0833" stroke="white" stroke-width="1.6" stroke-linecap="round" stroke-linejoin="round"/>
<path d="M12 13V6" stroke="white" stroke-width="1.6" stroke-linecap="round" stroke-linejoin="round"/>
</svg>
