<svg width="24" height="24" viewBox="0 0 24 24" fill="none" xmlns="http://www.w3.org/2000/svg">
<path d="M18.3 12.8H5.7C3.7 12.8 2 11.1 2 9V7C2 4.9 3.7 3.2 5.8 3.2H18.3C20.3 3.3 22 4.9 22 7V9C22 11.1 20.3 12.8 18.3 12.8ZM5.7 4.8C4.5 4.8 3.5 5.8 3.5 7V9C3.5 10.2 4.5 11.2 5.7 11.2H18.2C19.4 11.2 20.4 10.2 20.4 9V7C20.4 5.8 19.4 4.8 18.2 4.8H5.7Z" fill="#484848"/>
<path d="M6.0999 8.8C5.6999 8.8 5.3999 8.5 5.3999 8C5.3999 7.6 5.6999 7.2 6.1999 7.2C6.6999 7.2 6.8999 7.6 6.8999 8C6.8999 8.5 6.5999 8.8 6.0999 8.8Z" fill="#484848"/>
<path d="M9.4001 8.8C9.0001 8.8 8.6001 8.5 8.6001 8.1C8.6001 7.7 8.9001 7.3 9.4001 7.3C9.9001 7.3 10.2001 7.6 10.2001 8.1C10.2001 8.5 9.8001 8.8 9.4001 8.8Z" fill="#484848"/>
<path d="M18.1999 8.8H14.1999C13.7999 8.8 13.3999 8.5 13.3999 8C13.3999 7.6 13.6999 7.3 14.1999 7.3H18.1999C18.5999 7.3 18.9999 7.6 18.9999 8C18.9999 8.5 18.5999 8.8 18.1999 8.8Z" fill="#EC3137"/>
<path d="M18.3 20.8H5.7C3.7 20.8 2 19.1 2 17V15C2 12.9 3.7 11.2 5.8 11.2H18.3C20.4 11.2 22.1 12.9 22.1 15V17C22 19.1 20.3 20.8 18.3 20.8ZM5.7 12.8C4.5 12.8 3.5 13.8 3.5 15V17C3.5 18.2 4.5 19.2 5.7 19.2H18.2C19.4 19.2 20.4 18.2 20.4 17V15C20.4 13.8 19.4 12.8 18.2 12.8H5.7Z" fill="#484848"/>
<path d="M6.10005 16.8C5.70005 16.8 5.30005 16.5 5.30005 16C5.30005 15.5 5.60005 15.2 6.10005 15.2C6.60005 15.2 6.90005 15.5 6.90005 16C6.90005 16.5 6.60005 16.8 6.10005 16.8Z" fill="#484848"/>
<path d="M9.4001 16.8C9.0001 16.8 8.6001 16.5 8.6001 16C8.6001 15.5 8.9001 15.2 9.4001 15.2C9.9001 15.2 10.2001 15.5 10.2001 16C10.2001 16.5 9.8001 16.8 9.4001 16.8Z" fill="#484848"/>
<path d="M18.1999 16.8H14.1999C13.7999 16.8 13.3999 16.5 13.3999 16C13.3999 15.5 13.6999 15.2 14.1999 15.2H18.1999C18.5999 15.2 18.9999 15.5 18.9999 16C18.9999 16.5 18.5999 16.8 18.1999 16.8Z" fill="#EC3137"/>
</svg>
